…
``` r
selected_language_steam_games %>% group_by(selected_language, review_type) %>% summarise(n=n())
```

    ## `summarise()` has grouped output by 'selected_language'. You can override using
    ## the `.groups` argument.

    ## # A tibble: 202 × 3
    ## # Groups:   selected_language [29]
    ##    selected_language review_type          n
    ##    <chr>             <fct>            <int>
    ##  1 Arabic            Mixed                3
    ##  2 Arabic            Mostly Positive      1
    ##  3 Arabic            Positive             2
    ##  4 Arabic            Under 10 reviews     5
    ##  5 Arabic            <NA>                 2
    ##  6 Bulgarian         Mixed                3
    ##  7 Bulgarian         Under 10 reviews     7
    ##  8 Bulgarian         Very Positive        3
    ##  9 Bulgarian         <NA>                 6
    ## 10 Czech             Mixed               18
    ## # ℹ 192 more rows
…
<!-------------------------- Start your work below ---------------------------->

I want to show the predictions based on the linear regression model
trained on 3.1. The predictions are appended as a new column to the
dataset. **.fitted** column is the predictions for original price with
respect to given information. It seems like this model is not compatible
since the predictions are too far off from the ground truth.

``` r
library(broom) # necessary to use broom, no importation has been done before for this file

(preds<-augment(model_output))
```

    ## # A tibble: 16,966 × 8
    ##    original_price review_score .fitted .resid    .hat .sigma  .cooksd .std.resid
    ##             <dbl>        <dbl>   <dbl>  <dbl>   <dbl>  <dbl>    <dbl>      <dbl>
    ##  1         20.0           92.0   86.7  -66.8  1.10e-4  4995. 9.84e- 9   -0.0134 
    ##  2         30.0           49.0    4.02  26.0  1.72e-4  4995. 2.33e- 9    0.00520
    ##  3         40.0           71.0   46.3   -6.36 6.13e-5  4995. 4.96e-11   -0.00127
    ##  4         45.0           61.0   27.1   17.9  9.12e-5  4995. 5.85e-10    0.00358
    ##  5          0.001         74.0   52.1  -52.1  5.90e-5  4995. 3.21e- 9   -0.0104 
    ##  6         60.0           92.0   86.7  -26.8  1.10e-4  4995. 1.58e- 9   -0.00536
    ##  7         15.0           91.0   84.8  -69.8  1.04e-4  4995. 1.02e- 8   -0.0140 
    ##  8         30.0           85.0   73.3  -43.3  7.71e-5  4995. 2.90e- 9   -0.00867
    ##  9         50.0           44.0   -5.60  55.6  2.21e-4  4995. 1.37e- 8    0.0111 
    ## 10         20.0           83.0   69.4  -49.4  7.07e-5  4995. 3.47e- 9   -0.00990
    ## # ℹ 16,956 more rows

``` r
preds %>% select(review_score, original_price, .fitted)
```

    ## # A tibble: 16,966 × 3
    ##    review_score original_price .fitted
    ##           <dbl>          <dbl>   <dbl>
    ##  1         92.0         20.0     86.7 
    ##  2         49.0         30.0      4.02
    ##  3         71.0         40.0     46.3 
    ##  4         61.0         45.0     27.1 
    ##  5         74.0          0.001   52.1 
    ##  6         92.0         60.0     86.7 
    ##  7         91.0         15.0     84.8 
    ##  8         85.0         30.0     73.3 
    ##  9         44.0         50.0     -5.60
    ## 10         83.0         20.0     69.4 
    ## # ℹ 16,956 more rows
…
